{
    "m_SGVersion": 3,
    "m_Type": "UnityEditor.ShaderGraph.GraphData",
    "m_ObjectId": "7a68e9dac1fa4cd199476c8591efbff9",
    "m_Properties": [
        {
            "m_Id": "f902dfc1c89247ebaa2d3d1fa1f66b81"
        },
        {
            "m_Id": "a2289b856eac4e21a75ba1b1f75b7811"
        },
        {
            "m_Id": "85298ee88f404316897b990953c6c1aa"
        },
        {
            "m_Id": "4c9eb5ec1b3b437791b098141846952d"
        },
        {
            "m_Id": "04a1ce06abe744af802a530bfe43e624"
        },
        {
            "m_Id": "67e14232824c417987b8b2bd06da5460"
        },
        {
            "m_Id": "ddb23a26adc14bf3bb0e56168e12d4e0"
        },
        {
            "m_Id": "ccc092faaf6645eea20c0dbac19cad97"
        }
    ],
    "m_Keywords": [],
    "m_Dropdowns": [],
    "m_CategoryData": [
        {
            "m_Id": "1722765ece8b4e33b2457a67e9c2475c"
        },
        {
            "m_Id": "6e8a2b0173534dda8dc4687cfffa425f"
        },
        {
            "m_Id": "026da6cf026c4ef494b9db683bbea429"
        }
    ],
    "m_Nodes": [
        {
            "m_Id": "c26f8cc9502e4152ae70d9c6481a5bfc"
        },
        {
            "m_Id": "293ac7fef04941cca0186b8ed65f95de"
        },
        {
            "m_Id": "c8b7ae5ad0484126b265fc90df6efee1"
        },
        {
            "m_Id": "07f93638699a44b3bd2978adbfb202ab"
        },
        {
            "m_Id": "3027d74b1b304ccc864cdfd3ec2aaf73"
        },
        {
            "m_Id": "a01de34e0508463b80a4fec6687627d6"
        },
        {
            "m_Id": "3c3c775d9cb749979c7fdbe7df8536e9"
        },
        {
            "m_Id": "5e9802e0a6264e74bb2537a721d6c597"
        },
        {
            "m_Id": "a24b6e264b614945931aae815bd16d2f"
        },
        {
            "m_Id": "9d64debf1e44493cbd61a7586101bcb2"
        },
        {
            "m_Id": "ac621ed6208f479f96c24878a8e70311"
        },
        {
            "m_Id": "4240130a76c447eeb8e5e3aa03c998ae"
        },
        {
            "m_Id": "8127ac3f5afa434ba58e030a32950b22"
        },
        {
            "m_Id": "66bf9bb5d01541eea4a89207542cb9b2"
        },
        {
            "m_Id": "bb7de44f33424537884096e19666336f"
        },
        {
            "m_Id": "6c062b42476541aab977150116e9aa9d"
        },
        {
            "m_Id": "02001384985d4d2480b595a6821a77a2"
        },
        {
            "m_Id": "c51ef61f8e7440fbba0817c4f42f1480"
        },
        {
            "m_Id": "5c1131104afc4ac8a5e5c13e5fcc1d74"
        },
        {
            "m_Id": "7efe6fcb9d894547a004d8f7da1c364c"
        },
        {
            "m_Id": "255e035ee56d4f2594ab392725c999c9"
        },
        {
            "m_Id": "4f0ef533ca01427a8e9447f235b47300"
        },
        {
            "m_Id": "13c4be20195244a8bcb899c8796dc8e7"
        },
        {
            "m_Id": "1961634b8cdf4643b9f85dcfb5a73801"
        },
        {
            "m_Id": "5446e85cad804d409a483ad5dc7d92d7"
        },
        {
            "m_Id": "5c077f89d2b54a2e8b39917fd14b3f5c"
        }
    ],
    "m_GroupDatas": [
        {
            "m_Id": "a4be596e7ef14eff9ee510f625d8bb85"
        },
        {
            "m_Id": "bd0aa995b87f4af091b03f39a8eb04ec"
        },
        {
            "m_Id": "c46d5cad6c604a369892973d3d9917d9"
        },
        {
            "m_Id": "fe6d64abe8c7442db65be1c2419f0d85"
        }
    ],
    "m_StickyNoteDatas": [],
    "m_Edges": [
        {
            "m_OutputSlot": {
                "m_Node": {
                    "m_Id": "02001384985d4d2480b595a6821a77a2"
                },
                "m_SlotId": 0
            },
            "m_InputSlot": {
                "m_Node": {
                    "m_Id": "a01de34e0508463b80a4fec6687627d6"
                },
                "m_SlotId": 0
            }
        },
        {
            "m_OutputSlot": {
                "m_Node": {
                    "m_Id": "13c4be20195244a8bcb899c8796dc8e7"
                },
                "m_SlotId": 2
            },
            "m_InputSlot": {
                "m_Node": {
                    "m_Id": "1961634b8cdf4643b9f85dcfb5a73801"
                },
                "m_SlotId": 0
            }
        },
        {
            "m_OutputSlot": {
                "m_Node": {
                    "m_Id": "1961634b8cdf4643b9f85dcfb5a73801"
                },
                "m_SlotId": 3
            },
            "m_InputSlot": {
                "m_Node": {
                    "m_Id": "5e9802e0a6264e74bb2537a721d6c597"
                },
                "m_SlotId": 0
            }
        },
        {
            "m_OutputSlot": {
                "m_Node": {
                    "m_Id": "255e035ee56d4f2594ab392725c999c9"
                },
                "m_SlotId": 0
            },
            "m_InputSlot": {
                "m_Node": {
                    "m_Id": "1961634b8cdf4643b9f85dcfb5a73801"
                },
                "m_SlotId": 1
            }
        },
        {
            "m_OutputSlot": {
                "m_Node": {
                    "m_Id": "4240130a76c447eeb8e5e3aa03c998ae"
                },
                "m_SlotId": 0
            },
            "m_InputSlot": {
                "m_Node": {
                    "m_Id": "5c077f89d2b54a2e8b39917fd14b3f5c"
                },
                "m_SlotId": -90481742
            }
        },
        {
            "m_OutputSlot": {
                "m_Node": {
                    "m_Id": "4f0ef533ca01427a8e9447f235b47300"
                },
                "m_SlotId": 0
            },
            "m_InputSlot": {
                "m_Node": {
                    "m_Id": "13c4be20195244a8bcb899c8796dc8e7"
                },
                "m_SlotId": 0
            }
        },
        {
            "m_OutputSlot": {
                "m_Node": {
                    "m_Id": "5446e85cad804d409a483ad5dc7d92d7"
                },
                "m_SlotId": 0
            },
            "m_InputSlot": {
                "m_Node": {
                    "m_Id": "3c3c775d9cb749979c7fdbe7df8536e9"
                },
                "m_SlotId": 0
            }
        },
        {
            "m_OutputSlot": {
                "m_Node": {
                    "m_Id": "5c077f89d2b54a2e8b39917fd14b3f5c"
                },
                "m_SlotId": 1
            },
            "m_InputSlot": {
                "m_Node": {
                    "m_Id": "9d64debf1e44493cbd61a7586101bcb2"
                },
                "m_SlotId": 0
            }
        },
        {
            "m_OutputSlot": {
                "m_Node": {
                    "m_Id": "5c077f89d2b54a2e8b39917fd14b3f5c"
                },
                "m_SlotId": 2
            },
            "m_InputSlot": {
                "m_Node": {
                    "m_Id": "ac621ed6208f479f96c24878a8e70311"
                },
                "m_SlotId": 0
            }
        },
        {
            "m_OutputSlot": {
                "m_Node": {
                    "m_Id": "5c1131104afc4ac8a5e5c13e5fcc1d74"
                },
                "m_SlotId": 0
            },
            "m_InputSlot": {
                "m_Node": {
                    "m_Id": "7efe6fcb9d894547a004d8f7da1c364c"
                },
                "m_SlotId": 2
            }
        },
        {
            "m_OutputSlot": {
                "m_Node": {
                    "m_Id": "66bf9bb5d01541eea4a89207542cb9b2"
                },
                "m_SlotId": 0
            },
            "m_InputSlot": {
                "m_Node": {
                    "m_Id": "8127ac3f5afa434ba58e030a32950b22"
                },
                "m_SlotId": 1
            }
        },
        {
            "m_OutputSlot": {
                "m_Node": {
                    "m_Id": "6c062b42476541aab977150116e9aa9d"
                },
                "m_SlotId": 2
            },
            "m_InputSlot": {
                "m_Node": {
                    "m_Id": "07f93638699a44b3bd2978adbfb202ab"
                },
                "m_SlotId": 0
            }
        },
        {
            "m_OutputSlot": {
                "m_Node": {
                    "m_Id": "7efe6fcb9d894547a004d8f7da1c364c"
                },
                "m_SlotId": 3
            },
            "m_InputSlot": {
                "m_Node": {
                    "m_Id": "8127ac3f5afa434ba58e030a32950b22"
                },
                "m_SlotId": 2
            }
        },
        {
            "m_OutputSlot": {
                "m_Node": {
                    "m_Id": "8127ac3f5afa434ba58e030a32950b22"
                },
                "m_SlotId": 0
            },
            "m_InputSlot": {
                "m_Node": {
                    "m_Id": "6c062b42476541aab977150116e9aa9d"
                },
                "m_SlotId": 0
            }
        },
        {
            "m_OutputSlot": {
                "m_Node": {
                    "m_Id": "bb7de44f33424537884096e19666336f"
                },
                "m_SlotId": 0
            },
            "m_InputSlot": {
                "m_Node": {
                    "m_Id": "6c062b42476541aab977150116e9aa9d"
                },
                "m_SlotId": 1
            }
        },
        {
            "m_OutputSlot": {
                "m_Node": {
                    "m_Id": "c51ef61f8e7440fbba0817c4f42f1480"
                },
                "m_SlotId": 0
            },
            "m_InputSlot": {
                "m_Node": {
                    "m_Id": "7efe6fcb9d894547a004d8f7da1c364c"
                },
                "m_SlotId": 1
            }
        }
    ],
    "m_VertexContext": {
        "m_Position": {
            "x": -77.99995422363281,
            "y": -18.999967575073243
        },
        "m_Blocks": [
            {
                "m_Id": "c26f8cc9502e4152ae70d9c6481a5bfc"
            },
            {
                "m_Id": "293ac7fef04941cca0186b8ed65f95de"
            },
            {
                "m_Id": "c8b7ae5ad0484126b265fc90df6efee1"
            }
        ]
    },
    "m_FragmentContext": {
        "m_Position": {
            "x": -77.99995422363281,
            "y": 180.99996948242188
        },
        "m_Blocks": [
            {
                "m_Id": "07f93638699a44b3bd2978adbfb202ab"
            },
            {
                "m_Id": "3027d74b1b304ccc864cdfd3ec2aaf73"
            },
            {
                "m_Id": "a01de34e0508463b80a4fec6687627d6"
            },
            {
                "m_Id": "3c3c775d9cb749979c7fdbe7df8536e9"
            },
            {
                "m_Id": "5e9802e0a6264e74bb2537a721d6c597"
            },
            {
                "m_Id": "a24b6e264b614945931aae815bd16d2f"
            },
            {
                "m_Id": "9d64debf1e44493cbd61a7586101bcb2"
            },
            {
                "m_Id": "ac621ed6208f479f96c24878a8e70311"
            }
        ]
    },
    "m_PreviewData": {
        "serializedMesh": {
            "m_SerializedMesh": "{\"mesh\":{\"instanceID\":0}}",
            "m_Guid": ""
        },
        "preventRotation": false
    },
    "m_Path": "Shader Graphs",
    "m_GraphPrecision": 1,
    "m_PreviewMode": 2,
    "m_OutputNode": {
        "m_Id": ""
    },
    "m_ActiveTargets": [
        {
            "m_Id": "95d391aa280a4043a950a3fdb41df0be"
        }
    ]
}

{
    "m_SGVersion": 0,
    "m_Type": "UnityEditor.ShaderGraph.PropertyNode",
    "m_ObjectId": "02001384985d4d2480b595a6821a77a2",
    "m_Group": {
        "m_Id": ""
    },
    "m_Name": "Property",
    "m_DrawState": {
        "m_Expanded": true,
        "m_Position": {
            "serializedVersion": "2",
            "x": -306.0000305175781,
            "y": 299.0,
            "width": 115.99998474121094,
            "height": 34.000030517578128
        }
    },
    "m_Slots": [
        {
            "m_Id": "c587639dac284523b17f4c580266b5e6"
        }
    ],
    "synonyms": [],
    "m_Precision": 0,
    "m_PreviewExpanded": true,
    "m_DismissedVersion": 0,
    "m_PreviewMode": 0,
    "m_CustomColors": {
        "m_SerializableColors": []
    },
    "m_Property": {
        "m_Id": "4c9eb5ec1b3b437791b098141846952d"
    }
}

{
    "m_SGVersion": 0,
    "m_Type": "UnityEditor.ShaderGraph.CategoryData",
    "m_ObjectId": "026da6cf026c4ef494b9db683bbea429",
    "m_Name": "Dithering",
    "m_ChildObjectList": [
        {
            "m_Id": "f902dfc1c89247ebaa2d3d1fa1f66b81"
        }
    ]
}

{
    "m_SGVersion": 1,
    "m_Type": "UnityEditor.ShaderGraph.Internal.Vector1ShaderProperty",
    "m_ObjectId": "04a1ce06abe744af802a530bfe43e624",
    "m_Guid": {
        "m_GuidSerialized": "869cc1c0-76ec-42c1-bf42-fb5d0000ec0d"
    },
    "m_Name": "Smoothness",
    "m_DefaultRefNameVersion": 1,
    "m_RefNameGeneratedByDisplayName": "Smoothness",
    "m_DefaultReferenceName": "_Smoothness",
    "m_OverrideReferenceName": "",
    "m_GeneratePropertyBlock": true,
    "m_UseCustomSlotLabel": false,
    "m_CustomSlotLabel": "",
    "m_DismissedVersion": 0,
    "m_Precision": 0,
    "overrideHLSLDeclaration": false,
    "hlslDeclarationOverride": 0,
    "m_Hidden": false,
    "m_Value": 1.0,
    "m_FloatType": 1,
    "m_RangeValues": {
        "x": 0.0,
        "y": 1.0
    }
}

{
    "m_SGVersion": 0,
    "m_Type": "UnityEditor.ShaderGraph.SamplerStateMaterialSlot",
    "m_ObjectId": "062e91898f474aa2b60d34856c99e3cd",
    "m_Id": 3,
    "m_DisplayName": "Sampler",
    "m_SlotType": 0,
    "m_Hidden": false,
    "m_ShaderOutputName": "Sampler",
    "m_StageCapability": 3,
    "m_BareResource": false
}

{
    "m_SGVersion": 0,
    "m_Type": "UnityEditor.ShaderGraph.BlockNode",
    "m_ObjectId": "07f93638699a44b3bd2978adbfb202ab",
    "m_Group": {
        "m_Id": ""
    },
    "m_Name": "SurfaceDescription.BaseColor",
    "m_DrawState": {
        "m_Expanded": true,
        "m_Position": {
            "serializedVersion": "2",
            "x": 0.0,
            "y": 0.0,
            "width": 0.0,
            "height": 0.0
        }
    },
    "m_Slots": [
        {
            "m_Id": "b919bcdaae7f4b8a95078c0574ae2621"
        }
    ],
    "synonyms": [],
    "m_Precision": 0,
    "m_PreviewExpanded": true,
    "m_DismissedVersion": 0,
    "m_PreviewMode": 0,
    "m_CustomColors": {
        "m_SerializableColors": []
    },
    "m_SerializedDescriptor": "SurfaceDescription.BaseColor"
}

{
    "m_SGVersion": 0,
    "m_Type": "UnityEditor.ShaderGraph.PositionMaterialSlot",
    "m_ObjectId": "0ee175294858433bb1cd440f4527e68a",
    "m_Id": 0,
    "m_DisplayName": "Position",
    "m_SlotType": 0,
    "m_Hidden": false,
    "m_ShaderOutputName": "Position",
    "m_StageCapability": 1,
    "m_Value": {
        "x": 0.0,
        "y": 0.0,
        "z": 0.0
    },
    "m_DefaultValue": {
        "x": 0.0,
        "y": 0.0,
        "z": 0.0
    },
    "m_Labels": [],
    "m_Space": 0
}

{
    "m_SGVersion": 0,
    "m_Type": "UnityEditor.ShaderGraph.ComparisonNode",
    "m_ObjectId": "13c4be20195244a8bcb899c8796dc8e7",
    "m_Group": {
        "m_Id": "fe6d64abe8c7442db65be1c2419f0d85"
    },
    "m_Name": "Comparison",
    "m_DrawState": {
        "m_Expanded": true,
        "m_Position": {
            "serializedVersion": "2",
            "x": -797.0,
            "y": 488.9999694824219,
            "width": 145.0,
            "height": 136.00003051757813
        }
    },
    "m_Slots": [
        {
            "m_Id": "53c26ae5976c459aa9a51c9f7db534c8"
        },
        {
            "m_Id": "ff35fc91d46a48ea854608658b31dbac"
        },
        {
            "m_Id": "8a66135733f9407c8ad3dd2a4f5cdccc"
        }
    ],
    "synonyms": [
        "equal",
        "greater than",
        "less than"
    ],
    "m_Precision": 0,
    "m_PreviewExpanded": true,
    "m_DismissedVersion": 0,
    "m_PreviewMode": 0,
    "m_CustomColors": {
        "m_SerializableColors": []
    },
    "m_ComparisonType": 4
}

{
    "m_SGVersion": 0,
    "m_Type": "UnityEditor.ShaderGraph.Vector1MaterialSlot",
    "m_ObjectId": "16a0c326e81a4e559de41223e1f56d8d",
    "m_Id": 0,
    "m_DisplayName": "Alpha Clip Threshold",
    "m_SlotType": 0,
    "m_Hidden": false,
    "m_ShaderOutputName": "AlphaClipThreshold",
    "m_StageCapability": 2,
    "m_Value": 0.5,
    "m_DefaultValue": 0.5,
    "m_Labels": []
}

{
    "m_SGVersion": 0,
    "m_Type": "UnityEditor.ShaderGraph.CategoryData",
    "m_ObjectId": "1722765ece8b4e33b2457a67e9c2475c",
    "m_Name": "",
    "m_ChildObjectList": []
}

{
    "m_SGVersion": 0,
    "m_Type": "UnityEditor.ShaderGraph.BranchNode",
    "m_ObjectId": "1961634b8cdf4643b9f85dcfb5a73801",
    "m_Group": {
        "m_Id": "fe6d64abe8c7442db65be1c2419f0d85"
    },
    "m_Name": "Branch",
    "m_DrawState": {
        "m_Expanded": true,
        "m_Position": {
            "serializedVersion": "2",
            "x": -596.9999389648438,
            "y": 347.0,
            "width": 172.00003051757813,
            "height": 141.99996948242188
        }
    },
    "m_Slots": [
        {
            "m_Id": "cfc9c08ce235422681334439f88f34c6"
        },
        {
            "m_Id": "b7b7b668ee694f8cb8fcd0e8c7763161"
        },
        {
            "m_Id": "58891b9c73f5494490916538d11830b3"
        },
        {
            "m_Id": "d040b33d676e496a81e1c69e38b05d40"
        }
    ],
    "synonyms": [
        "switch",
        "if",
        "else"
    ],
    "m_Precision": 0,
    "m_PreviewExpanded": false,
    "m_DismissedVersion": 0,
    "m_PreviewMode": 0,
    "m_CustomColors": {
        "m_SerializableColors": []
    }
}

{
    "m_SGVersion": 0,
    "m_Type": "UnityEditor.ShaderGraph.Vector2MaterialSlot",
    "m_ObjectId": "22bacbe5cba94e3982aade9df5c4a8b2",
    "m_Id": 1,
    "m_DisplayName": "Tiling",
    "m_SlotType": 0,
    "m_Hidden": false,
    "m_ShaderOutputName": "Tiling",
    "m_StageCapability": 3,
    "m_Value": {
        "x": 1.0,
        "y": 1.0
    },
    "m_DefaultValue": {
        "x": 0.0,
        "y": 0.0
    },
    "m_Labels": []
}

{
    "m_SGVersion": 0,
    "m_Type": "UnityEditor.ShaderGraph.PropertyNode",
    "m_ObjectId": "255e035ee56d4f2594ab392725c999c9",
    "m_Group": {
        "m_Id": "fe6d64abe8c7442db65be1c2419f0d85"
    },
    "m_Name": "Property",
    "m_DrawState": {
        "m_Expanded": true,
        "m_Position": {
            "serializedVersion": "2",
            "x": -797.0,
            "y": 347.0,
            "width": 151.00006103515626,
            "height": 34.0
        }
    },
    "m_Slots": [
        {
            "m_Id": "fa4edac4c4db4abfb5b23c217e34aadd"
        }
    ],
    "synonyms": [],
    "m_Precision": 0,
    "m_PreviewExpanded": true,
    "m_DismissedVersion": 0,
    "m_PreviewMode": 0,
    "m_CustomColors": {
        "m_SerializableColors": []
    },
    "m_Property": {
        "m_Id": "ccc092faaf6645eea20c0dbac19cad97"
    }
}

{
    "m_SGVersion": 0,
    "m_Type": "UnityEditor.ShaderGraph.BlockNode",
    "m_ObjectId": "293ac7fef04941cca0186b8ed65f95de",
    "m_Group": {
        "m_Id": ""
    },
    "m_Name": "VertexDescription.Normal",
    "m_DrawState": {
        "m_Expanded": true,
        "m_Position": {
            "serializedVersion": "2",
            "x": 0.0,
            "y": 0.0,
            "width": 0.0,
            "height": 0.0
        }
    },
    "m_Slots": [
        {
            "m_Id": "d5b9a71ca9a244218c3d9800d9bfd5f6"
        }
    ],
    "synonyms": [],
    "m_Precision": 0,
    "m_PreviewExpanded": true,
    "m_DismissedVersion": 0,
    "m_PreviewMode": 0,
    "m_CustomColors": {
        "m_SerializableColors": []
    },
    "m_SerializedDescriptor": "VertexDescription.Normal"
}

{
    "m_SGVersion": 0,
    "m_Type": "UnityEditor.ShaderGraph.Vector2MaterialSlot",
    "m_ObjectId": "29cd4f6f97ab4aed8e8687faad2aa4dc",
    "m_Id": 0,
    "m_DisplayName": "Tiling",
    "m_SlotType": 1,
    "m_Hidden": false,
    "m_ShaderOutputName": "Out",
    "m_StageCapability": 3,
    "m_Value": {
        "x": 0.0,
        "y": 0.0
    },
    "m_DefaultValue": {
        "x": 0.0,
        "y": 0.0
    },
    "m_Labels": []
}

{
    "m_SGVersion": 0,
    "m_Type": "UnityEditor.ShaderGraph.BlockNode",
    "m_ObjectId": "3027d74b1b304ccc864cdfd3ec2aaf73",
    "m_Group": {
        "m_Id": ""
    },
    "m_Name": "SurfaceDescription.NormalTS",
    "m_DrawState": {
        "m_Expanded": true,
        "m_Position": {
            "serializedVersion": "2",
            "x": 0.0,
            "y": 0.0,
            "width": 0.0,
            "height": 0.0
        }
    },
    "m_Slots": [
        {
            "m_Id": "8e4f17f426c447f6b6bcd95a7a940618"
        }
    ],
    "synonyms": [],
    "m_Precision": 0,
    "m_PreviewExpanded": true,
    "m_DismissedVersion": 0,
    "m_PreviewMode": 0,
    "m_CustomColors": {
        "m_SerializableColors": []
    },
    "m_SerializedDescriptor": "SurfaceDescription.NormalTS"
}

{
    "m_SGVersion": 0,
    "m_Type": "UnityEditor.ShaderGraph.Vector1MaterialSlot",
    "m_ObjectId": "34d10ef2c3cf4dd5888cba63c6dd1879",
    "m_Id": 0,
    "m_DisplayName": "Smoothness",
    "m_SlotType": 1,
    "m_Hidden": false,
    "m_ShaderOutputName": "Out",
    "m_StageCapability": 3,
    "m_Value": 0.0,
    "m_DefaultValue": 0.0,
    "m_Labels": []
}

{
    "m_SGVersion": 0,
    "m_Type": "UnityEditor.ShaderGraph.BlockNode",
    "m_ObjectId": "3c3c775d9cb749979c7fdbe7df8536e9",
    "m_Group": {
        "m_Id": ""
    },
    "m_Name": "SurfaceDescription.Smoothness",
    "m_DrawState": {
        "m_Expanded": true,
        "m_Position": {
            "serializedVersion": "2",
            "x": 0.0,
            "y": 0.0,
            "width": 0.0,
            "height": 0.0
        }
    },
    "m_Slots": [
        {
            "m_Id": "b93a7486a98c4d98a34e556be5e45c52"
        }
    ],
    "synonyms": [],
    "m_Precision": 0,
    "m_PreviewExpanded": true,
    "m_DismissedVersion": 0,
    "m_PreviewMode": 0,
    "m_CustomColors": {
        "m_SerializableColors": []
    },
    "m_SerializedDescriptor": "SurfaceDescription.Smoothness"
}

{
    "m_SGVersion": 0,
    "m_Type": "UnityEditor.ShaderGraph.PropertyNode",
    "m_ObjectId": "4240130a76c447eeb8e5e3aa03c998ae",
    "m_Group": {
        "m_Id": "a4be596e7ef14eff9ee510f625d8bb85"
    },
    "m_Name": "Property",
    "m_DrawState": {
        "m_Expanded": true,
        "m_Position": {
            "serializedVersion": "2",
            "x": -878.0000610351563,
            "y": 731.0,
            "width": 116.0,
            "height": 34.0
        }
    },
    "m_Slots": [
        {
            "m_Id": "5b5e134096b54af9921ee8b43edf06d6"
        }
    ],
    "synonyms": [],
    "m_Precision": 0,
    "m_PreviewExpanded": true,
    "m_DismissedVersion": 0,
    "m_PreviewMode": 0,
    "m_CustomColors": {
        "m_SerializableColors": []
    },
    "m_Property": {
        "m_Id": "f902dfc1c89247ebaa2d3d1fa1f66b81"
    }
}

{
    "m_SGVersion": 0,
    "m_Type": "UnityEditor.ShaderGraph.Texture2DMaterialSlot",
    "m_ObjectId": "44f47cdae9e8430c9fbd00cc9b7c7980",
    "m_Id": 0,
    "m_DisplayName": "BaseColorMap",
    "m_SlotType": 1,
    "m_Hidden": false,
    "m_ShaderOutputName": "Out",
    "m_StageCapability": 3,
    "m_BareResource": false
}

{
    "m_SGVersion": 0,
    "m_Type": "UnityEditor.ShaderGraph.DynamicValueMaterialSlot",
    "m_ObjectId": "48c096eac7fc41ee8c93c1d5f1a0cac7",
    "m_Id": 0,
    "m_DisplayName": "A",
    "m_SlotType": 0,
    "m_Hidden": false,
    "m_ShaderOutputName": "A",
    "m_StageCapability": 3,
    "m_Value": {
        "e00": 0.0,
        "e01": 0.0,
        "e02": 0.0,
        "e03": 0.0,
        "e10": 0.0,
        "e11": 0.0,
        "e12": 0.0,
        "e13": 0.0,
        "e20": 0.0,
        "e21": 0.0,
        "e22": 0.0,
        "e23": 0.0,
        "e30": 0.0,
        "e31": 0.0,
        "e32": 0.0,
        "e33": 0.0
    },
    "m_DefaultValue": {
        "e00": 1.0,
        "e01": 0.0,
        "e02": 0.0,
        "e03": 0.0,
        "e10": 0.0,
        "e11": 1.0,
        "e12": 0.0,
        "e13": 0.0,
        "e20": 0.0,
        "e21": 0.0,
        "e22": 1.0,
        "e23": 0.0,
        "e30": 0.0,
        "e31": 0.0,
        "e32": 0.0,
        "e33": 1.0
    }
}

{
    "m_SGVersion": 1,
    "m_Type": "UnityEditor.ShaderGraph.Internal.Vector1ShaderProperty",
    "m_ObjectId": "4c9eb5ec1b3b437791b098141846952d",
    "m_Guid": {
        "m_GuidSerialized": "80dc247a-9f83-40f0-a78f-6cc577f72c9f"
    },
    "m_Name": "Metallic",
    "m_DefaultRefNameVersion": 1,
    "m_RefNameGeneratedByDisplayName": "Metallic",
    "m_DefaultReferenceName": "_Metallic",
    "m_OverrideReferenceName": "",
    "m_GeneratePropertyBlock": true,
    "m_UseCustomSlotLabel": false,
    "m_CustomSlotLabel": "",
    "m_DismissedVersion": 0,
    "m_Precision": 0,
    "overrideHLSLDeclaration": false,
    "hlslDeclarationOverride": 0,
    "m_Hidden": false,
    "m_Value": 1.0,
    "m_FloatType": 1,
    "m_RangeValues": {
        "x": 0.0,
        "y": 1.0
    }
}

{
    "m_SGVersion": 0,
    "m_Type": "UnityEditor.ShaderGraph.Vector1MaterialSlot",
    "m_ObjectId": "4eb37e010b924c4bbd9c5d7dabc40491",
    "m_Id": 1,
    "m_DisplayName": "Alpha",
    "m_SlotType": 1,
    "m_Hidden": false,
    "m_ShaderOutputName": "Alpha",
    "m_StageCapability": 3,
    "m_Value": 0.0,
    "m_DefaultValue": 0.0,
    "m_Labels": []
}

{
    "m_SGVersion": 0,
    "m_Type": "UnityEditor.ShaderGraph.PropertyNode",
    "m_ObjectId": "4f0ef533ca01427a8e9447f235b47300",
    "m_Group": {
        "m_Id": "fe6d64abe8c7442db65be1c2419f0d85"
    },
    "m_Name": "Property",
    "m_DrawState": {
        "m_Expanded": true,
        "m_Position": {
            "serializedVersion": "2",
            "x": -980.0,
            "y": 488.9999694824219,
            "width": 116.00006103515625,
            "height": 34.000091552734378
        }
    },
    "m_Slots": [
        {
            "m_Id": "dc81887baeb74cb3b5c12aa6e8daac3b"
        }
    ],
    "synonyms": [],
    "m_Precision": 0,
    "m_PreviewExpanded": true,
    "m_DismissedVersion": 0,
    "m_PreviewMode": 0,
    "m_CustomColors": {
        "m_SerializableColors": []
    },
    "m_Property": {
        "m_Id": "f902dfc1c89247ebaa2d3d1fa1f66b81"
    }
}

{
    "m_SGVersion": 0,
    "m_Type": "UnityEditor.ShaderGraph.Vector1MaterialSlot",
    "m_ObjectId": "53c26ae5976c459aa9a51c9f7db534c8",
    "m_Id": 0,
    "m_DisplayName": "A",
    "m_SlotType": 0,
    "m_Hidden": false,
    "m_ShaderOutputName": "A",
    "m_StageCapability": 3,
    "m_Value": 0.0,
    "m_DefaultValue": 0.0,
    "m_Labels": []
}

{
    "m_SGVersion": 0,
    "m_Type": "UnityEditor.ShaderGraph.PropertyNode",
    "m_ObjectId": "5446e85cad804d409a483ad5dc7d92d7",
    "m_Group": {
        "m_Id": ""
    },
    "m_Name": "Property",
    "m_DrawState": {
        "m_Expanded": true,
        "m_Position": {
            "serializedVersion": "2",
            "x": -306.0000305175781,
            "y": 342.0000305175781,
            "width": 140.0,
            "height": 33.999969482421878
        }
    },
    "m_Slots": [
        {
            "m_Id": "34d10ef2c3cf4dd5888cba63c6dd1879"
        }
    ],
    "synonyms": [],
    "m_Precision": 0,
    "m_PreviewExpanded": true,
    "m_DismissedVersion": 0,
    "m_PreviewMode": 0,
    "m_CustomColors": {
        "m_SerializableColors": []
    },
    "m_Property": {
        "m_Id": "04a1ce06abe744af802a530bfe43e624"
    }
}

{
    "m_SGVersion": 0,
    "m_Type": "UnityEditor.ShaderGraph.DynamicVectorMaterialSlot",
    "m_ObjectId": "58891b9c73f5494490916538d11830b3",
    "m_Id": 2,
    "m_DisplayName": "False",
    "m_SlotType": 0,
    "m_Hidden": false,
    "m_ShaderOutputName": "False",
    "m_StageCapability": 3,
    "m_Value": {
        "x": 0.0,
        "y": 0.0,
        "z": 0.0,
        "w": 0.0
    },
    "m_DefaultValue": {
        "x": 0.0,
        "y": 0.0,
        "z": 0.0,
        "w": 0.0
    }
}

{
    "m_SGVersion": 0,
    "m_Type": "UnityEditor.ShaderGraph.Vector1MaterialSlot",
    "m_ObjectId": "5b5e134096b54af9921ee8b43edf06d6",
    "m_Id": 0,
    "m_DisplayName": "Opacity",
    "m_SlotType": 1,
    "m_Hidden": false,
    "m_ShaderOutputName": "Out",
    "m_StageCapability": 3,
    "m_Value": 0.0,
    "m_DefaultValue": 0.0,
    "m_Labels": []
}

{
    "m_SGVersion": 0,
    "m_Type": "UnityEditor.ShaderGraph.Vector2MaterialSlot",
    "m_ObjectId": "5bc7b112916a430dab81a4cee057643d",
    "m_Id": 2,
    "m_DisplayName": "Offset",
    "m_SlotType": 0,
    "m_Hidden": false,
    "m_ShaderOutputName": "Offset",
    "m_StageCapability": 3,
    "m_Value": {
        "x": 0.0,
        "y": 0.0
    },
    "m_DefaultValue": {
        "x": 0.0,
        "y": 0.0
    },
    "m_Labels": []
}

{
    "m_SGVersion": 0,
    "m_Type": "UnityEditor.ShaderGraph.SubGraphNode",
    "m_ObjectId": "5c077f89d2b54a2e8b39917fd14b3f5c",
    "m_Group": {
        "m_Id": "a4be596e7ef14eff9ee510f625d8bb85"
    },
    "m_Name": "Dithering",
    "m_DrawState": {
        "m_Expanded": true,
        "m_Position": {
            "serializedVersion": "2",
            "x": -664.0,
            "y": 731.0,
            "width": 241.99993896484376,
            "height": 302.0
        }
    },
    "m_Slots": [
        {
            "m_Id": "a3abca1c56ee4fa1b0d064b6752026d0"
        },
        {
            "m_Id": "d1ba3f132f974b70bbee7910feb98278"
        },
        {
            "m_Id": "4eb37e010b924c4bbd9c5d7dabc40491"
        },
        {
            "m_Id": "a7f9bc76c6b44b258839550495e4d7d3"
        }
    ],
    "synonyms": [],
    "m_Precision": 0,
    "m_PreviewExpanded": false,
    "m_DismissedVersion": 0,
    "m_PreviewMode": 0,
    "m_CustomColors": {
        "m_SerializableColors": []
    },
    "m_SerializedSubGraph": "{\n    \"subGraph\": {\n        \"fileID\": -5475051401550479605,\n        \"guid\": \"f69584db4c340994fbc5ca5e2ec359a6\",\n        \"type\": 3\n    }\n}",
    "m_PropertyGuids": [
        "d0f2ddab-c8bf-4c10-b22d-541f14632d79",
        "06780067-8bb0-4df1-9d5b-6e4a2231ad32"
    ],
    "m_PropertyIds": [
        -90481742,
        860545384
    ],
    "m_Dropdowns": [],
    "m_DropdownSelectedEntries": []
}

{
    "m_SGVersion": 0,
    "m_Type": "UnityEditor.ShaderGraph.PropertyNode",
    "m_ObjectId": "5c1131104afc4ac8a5e5c13e5fcc1d74",
    "m_Group": {
        "m_Id": "c46d5cad6c604a369892973d3d9917d9"
    },
    "m_Name": "Property",
    "m_DrawState": {
        "m_Expanded": true,
        "m_Position": {
            "serializedVersion": "2",
            "x": -1483.9998779296875,
            "y": 41.99995040893555,
            "width": 110.0,
            "height": 34.00002670288086
        }
    },
    "m_Slots": [
        {
            "m_Id": "62d39f0b84ad48c5bf3d13a41c014d67"
        }
    ],
    "synonyms": [],
    "m_Precision": 0,
    "m_PreviewExpanded": true,
    "m_DismissedVersion": 0,
    "m_PreviewMode": 0,
    "m_CustomColors": {
        "m_SerializableColors": []
    },
    "m_Property": {
        "m_Id": "ddb23a26adc14bf3bb0e56168e12d4e0"
    }
}

{
    "m_SGVersion": 0,
    "m_Type": "UnityEditor.ShaderGraph.BlockNode",
    "m_ObjectId": "5e9802e0a6264e74bb2537a721d6c597",
    "m_Group": {
        "m_Id": ""
    },
    "m_Name": "SurfaceDescription.Emission",
    "m_DrawState": {
        "m_Expanded": true,
        "m_Position": {
            "serializedVersion": "2",
            "x": 0.0,
            "y": 0.0,
            "width": 0.0,
            "height": 0.0
        }
    },
    "m_Slots": [
        {
            "m_Id": "f94befbbdbbd4bd081530441d4eb29ab"
        }
    ],
    "synonyms": [],
    "m_Precision": 0,
    "m_PreviewExpanded": true,
    "m_DismissedVersion": 0,
    "m_PreviewMode": 0,
    "m_CustomColors": {
        "m_SerializableColors": []
    },
    "m_SerializedDescriptor": "SurfaceDescription.Emission"
}

{
    "m_SGVersion": 0,
    "m_Type": "UnityEditor.ShaderGraph.Vector1MaterialSlot",
    "m_ObjectId": "5fd728ab21974e858c14f06af1c67d75",
    "m_Id": 0,
    "m_DisplayName": "Metallic",
    "m_SlotType": 0,
    "m_Hidden": false,
    "m_ShaderOutputName": "Metallic",
    "m_StageCapability": 2,
    "m_Value": 0.0,
    "m_DefaultValue": 0.0,
    "m_Labels": []
}

{
    "m_SGVersion": 0,
    "m_Type": "UnityEditor.ShaderGraph.Vector2MaterialSlot",
    "m_ObjectId": "62d39f0b84ad48c5bf3d13a41c014d67",
    "m_Id": 0,
    "m_DisplayName": "Offset",
    "m_SlotType": 1,
    "m_Hidden": false,
    "m_ShaderOutputName": "Out",
    "m_StageCapability": 3,
    "m_Value": {
        "x": 0.0,
        "y": 0.0
    },
    "m_DefaultValue": {
        "x": 0.0,
        "y": 0.0
    },
    "m_Labels": []
}

{
    "m_SGVersion": 0,
    "m_Type": "UnityEditor.ShaderGraph.PropertyNode",
    "m_ObjectId": "66bf9bb5d01541eea4a89207542cb9b2",
    "m_Group": {
        "m_Id": "bd0aa995b87f4af091b03f39a8eb04ec"
    },
    "m_Name": "Property",
    "m_DrawState": {
        "m_Expanded": true,
        "m_Position": {
            "serializedVersion": "2",
            "x": -1016.0,
            "y": -72.99998474121094,
            "width": 160.0,
            "height": 33.99999237060547
        }
    },
    "m_Slots": [
        {
            "m_Id": "44f47cdae9e8430c9fbd00cc9b7c7980"
        }
    ],
    "synonyms": [],
    "m_Precision": 0,
    "m_PreviewExpanded": true,
    "m_DismissedVersion": 0,
    "m_PreviewMode": 0,
    "m_CustomColors": {
        "m_SerializableColors": []
    },
    "m_Property": {
        "m_Id": "a2289b856eac4e21a75ba1b1f75b7811"
    }
}

{
    "m_SGVersion": 0,
    "m_Type": "UnityEditor.ShaderGraph.DynamicValueMaterialSlot",
    "m_ObjectId": "672d2bfbcb294a9ba6338f103efb4d9d",
    "m_Id": 1,
    "m_DisplayName": "B",
    "m_SlotType": 0,
    "m_Hidden": false,
    "m_ShaderOutputName": "B",
    "m_StageCapability": 3,
    "m_Value": {
        "e00": 2.0,
        "e01": 2.0,
        "e02": 2.0,
        "e03": 2.0,
        "e10": 2.0,
        "e11": 2.0,
        "e12": 2.0,
        "e13": 2.0,
        "e20": 2.0,
        "e21": 2.0,
        "e22": 2.0,
        "e23": 2.0,
        "e30": 2.0,
        "e31": 2.0,
        "e32": 2.0,
        "e33": 2.0
    },
    "m_DefaultValue": {
        "e00": 1.0,
        "e01": 0.0,
        "e02": 0.0,
        "e03": 0.0,
        "e10": 0.0,
        "e11": 1.0,
        "e12": 0.0,
        "e13": 0.0,
        "e20": 0.0,
        "e21": 0.0,
        "e22": 1.0,
        "e23": 0.0,
        "e30": 0.0,
        "e31": 0.0,
        "e32": 0.0,
        "e33": 1.0
    }
}

{
    "m_SGVersion": 1,
    "m_Type": "UnityEditor.ShaderGraph.Internal.Vector2ShaderProperty",
    "m_ObjectId": "67e14232824c417987b8b2bd06da5460",
    "m_Guid": {
        "m_GuidSerialized": "25add723-8916-4fc1-aa52-ef081aee29ca"
    },
    "m_Name": "Tiling",
    "m_DefaultRefNameVersion": 1,
    "m_RefNameGeneratedByDisplayName": "Tiling",
    "m_DefaultReferenceName": "_Tiling",
    "m_OverrideReferenceName": "",
    "m_GeneratePropertyBlock": true,
    "m_UseCustomSlotLabel": false,
    "m_CustomSlotLabel": "",
    "m_DismissedVersion": 0,
    "m_Precision": 0,
    "overrideHLSLDeclaration": false,
    "hlslDeclarationOverride": 0,
    "m_Hidden": false,
    "m_Value": {
        "x": 1.0,
        "y": 1.0,
        "z": 0.0,
        "w": 0.0
    }
}

{
    "m_SGVersion": 0,
    "m_Type": "UnityEditor.ShaderGraph.MultiplyNode",
    "m_ObjectId": "6c062b42476541aab977150116e9aa9d",
    "m_Group": {
        "m_Id": "bd0aa995b87f4af091b03f39a8eb04ec"
    },
    "m_Name": "Multiply",
    "m_DrawState": {
        "m_Expanded": true,
        "m_Position": {
            "serializedVersion": "2",
            "x": -557.0,
            "y": 6.999979019165039,
            "width": 129.99990844726563,
            "height": 118.0000228881836
        }
    },
    "m_Slots": [
        {
            "m_Id": "48c096eac7fc41ee8c93c1d5f1a0cac7"
        },
        {
            "m_Id": "672d2bfbcb294a9ba6338f103efb4d9d"
        },
        {
            "m_Id": "f178c8c4033d4e0ea0379204fed548bb"
        }
    ],
    "synonyms": [
        "multiplication",
        "times",
        "x"
    ],
    "m_Precision": 0,
    "m_PreviewExpanded": false,
    "m_DismissedVersion": 0,
    "m_PreviewMode": 0,
    "m_CustomColors": {
        "m_SerializableColors": []
    }
}

{
    "m_SGVersion": 2,
    "m_Type": "UnityEditor.Rendering.Universal.ShaderGraph.UniversalLitSubTarget",
    "m_ObjectId": "6dfde3d7ec354c17bdf38de39de3d16f",
    "m_WorkflowMode": 1,
    "m_NormalDropOffSpace": 0,
    "m_ClearCoat": false,
    "m_BlendModePreserveSpecular": true
}

{
    "m_SGVersion": 0,
    "m_Type": "UnityEditor.ShaderGraph.CategoryData",
    "m_ObjectId": "6e8a2b0173534dda8dc4687cfffa425f",
    "m_Name": "Main",
    "m_ChildObjectList": [
        {
            "m_Id": "85298ee88f404316897b990953c6c1aa"
        },
        {
            "m_Id": "a2289b856eac4e21a75ba1b1f75b7811"
        },
        {
            "m_Id": "4c9eb5ec1b3b437791b098141846952d"
        },
        {
            "m_Id": "04a1ce06abe744af802a530bfe43e624"
        },
        {
            "m_Id": "ccc092faaf6645eea20c0dbac19cad97"
        },
        {
            "m_Id": "67e14232824c417987b8b2bd06da5460"
        },
        {
            "m_Id": "ddb23a26adc14bf3bb0e56168e12d4e0"
        }
    ]
}

{
    "m_SGVersion": 0,
    "m_Type": "UnityEditor.ShaderGraph.TilingAndOffsetNode",
    "m_ObjectId": "7efe6fcb9d894547a004d8f7da1c364c",
    "m_Group": {
        "m_Id": "c46d5cad6c604a369892973d3d9917d9"
    },
    "m_Name": "Tiling And Offset",
    "m_DrawState": {
        "m_Expanded": true,
        "m_Position": {
            "serializedVersion": "2",
            "x": -1321.9998779296875,
            "y": -87.0000228881836,
            "width": 208.0,
            "height": 325.9999694824219
        }
    },
    "m_Slots": [
        {
            "m_Id": "f38d9ee6095248fa8e78078a709b3601"
        },
        {
            "m_Id": "22bacbe5cba94e3982aade9df5c4a8b2"
        },
        {
            "m_Id": "5bc7b112916a430dab81a4cee057643d"
        },
        {
            "m_Id": "d068765ab2a04e28b53b073407a8de6b"
        }
    ],
    "synonyms": [
        "pan",
        "scale"
    ],
    "m_Precision": 0,
    "m_PreviewExpanded": true,
    "m_DismissedVersion": 0,
    "m_PreviewMode": 0,
    "m_CustomColors": {
        "m_SerializableColors": []
    }
}

{
    "m_SGVersion": 0,
    "m_Type": "UnityEditor.ShaderGraph.SampleTexture2DNode",
    "m_ObjectId": "8127ac3f5afa434ba58e030a32950b22",
    "m_Group": {
        "m_Id": "bd0aa995b87f4af091b03f39a8eb04ec"
    },
    "m_Name": "Sample Texture 2D",
    "m_DrawState": {
        "m_Expanded": true,
        "m_Position": {
            "serializedVersion": "2",
            "x": -813.0,
            "y": -88.0,
            "width": 182.99993896484376,
            "height": 250.99996948242188
        }
    },
    "m_Slots": [
        {
            "m_Id": "969a44866c5f409a9353a00b20f3c959"
        },
        {
            "m_Id": "9cbd214b8f80441ebced23bb8b124f68"
        },
        {
            "m_Id": "c6e9c94842a64985a5034e9826356ae5"
        },
        {
            "m_Id": "c7b518a01c8d40ad9ec57b8e5d061f11"
        },
        {
            "m_Id": "bc88627ad18d4fcb93922359229a337a"
        },
        {
            "m_Id": "a9e35da7a6174fcabf2cc2492ded2ff1"
        },
        {
            "m_Id": "8cc362ca08594406af3cb04399c7a935"
        },
        {
            "m_Id": "062e91898f474aa2b60d34856c99e3cd"
        }
    ],
    "synonyms": [
        "tex2d"
    ],
    "m_Precision": 0,
    "m_PreviewExpanded": false,
    "m_DismissedVersion": 0,
    "m_PreviewMode": 0,
    "m_CustomColors": {
        "m_SerializableColors": []
    },
    "m_TextureType": 0,
    "m_NormalMapSpace": 0,
    "m_EnableGlobalMipBias": true,
    "m_MipSamplingMode": 0
}

{
    "m_SGVersion": 0,
    "m_Type": "UnityEditor.ShaderGraph.Vector4MaterialSlot",
    "m_ObjectId": "84f02ddc262247cf9041df57fdf2dd45",
    "m_Id": 0,
    "m_DisplayName": "BaseColor",
    "m_SlotType": 1,
    "m_Hidden": false,
    "m_ShaderOutputName": "Out",
    "m_StageCapability": 3,
    "m_Value": {
        "x": 0.0,
        "y": 0.0,
        "z": 0.0,
        "w": 0.0
    },
    "m_DefaultValue": {
        "x": 0.0,
        "y": 0.0,
        "z": 0.0,
        "w": 0.0
    },
    "m_Labels": []
}

{
    "m_SGVersion": 3,
    "m_Type": "UnityEditor.ShaderGraph.Internal.ColorShaderProperty",
    "m_ObjectId": "85298ee88f404316897b990953c6c1aa",
    "m_Guid": {
        "m_GuidSerialized": "223bb9f2-1873-437b-ab4f-1de9bff918b9"
    },
    "m_Name": "BaseColor",
    "m_DefaultRefNameVersion": 1,
    "m_RefNameGeneratedByDisplayName": "BaseColor",
    "m_DefaultReferenceName": "_BaseColor",
    "m_OverrideReferenceName": "",
    "m_GeneratePropertyBlock": true,
    "m_UseCustomSlotLabel": false,
    "m_CustomSlotLabel": "",
    "m_DismissedVersion": 0,
    "m_Precision": 0,
    "overrideHLSLDeclaration": false,
    "hlslDeclarationOverride": 0,
    "m_Hidden": false,
    "m_Value": {
        "r": 1.0,
        "g": 1.0,
        "b": 1.0,
        "a": 1.0
    },
    "isMainColor": false,
    "m_ColorMode": 0
}

{
    "m_SGVersion": 0,
    "m_Type": "UnityEditor.ShaderGraph.BooleanMaterialSlot",
    "m_ObjectId": "8a66135733f9407c8ad3dd2a4f5cdccc",
    "m_Id": 2,
    "m_DisplayName": "Out",
    "m_SlotType": 1,
    "m_Hidden": false,
    "m_ShaderOutputName": "Out",
    "m_StageCapability": 3,
    "m_Value": false,
    "m_DefaultValue": false
}

{
    "m_SGVersion": 0,
    "m_Type": "UnityEditor.ShaderGraph.UVMaterialSlot",
    "m_ObjectId": "8cc362ca08594406af3cb04399c7a935",
    "m_Id": 2,
    "m_DisplayName": "UV",
    "m_SlotType": 0,
    "m_Hidden": false,
    "m_ShaderOutputName": "UV",
    "m_StageCapability": 3,
    "m_Value": {
        "x": 0.0,
        "y": 0.0
    },
    "m_DefaultValue": {
        "x": 0.0,
        "y": 0.0
    },
    "m_Labels": [],
    "m_Channel": 0
}

{
    "m_SGVersion": 0,
    "m_Type": "UnityEditor.ShaderGraph.NormalMaterialSlot",
    "m_ObjectId": "8e4f17f426c447f6b6bcd95a7a940618",
    "m_Id": 0,
    "m_DisplayName": "Normal (Tangent Space)",
    "m_SlotType": 0,
    "m_Hidden": false,
    "m_ShaderOutputName": "NormalTS",
    "m_StageCapability": 2,
    "m_Value": {
        "x": 0.0,
        "y": 0.0,
        "z": 0.0
    },
    "m_DefaultValue": {
        "x": 0.0,
        "y": 0.0,
        "z": 0.0
    },
    "m_Labels": [],
    "m_Space": 3
}

{
    "m_SGVersion": 1,
    "m_Type": "UnityEditor.Rendering.Universal.ShaderGraph.UniversalTarget",
    "m_ObjectId": "95d391aa280a4043a950a3fdb41df0be",
    "m_Datas": [],
    "m_ActiveSubTarget": {
        "m_Id": "6dfde3d7ec354c17bdf38de39de3d16f"
    },
    "m_AllowMaterialOverride": false,
    "m_SurfaceType": 0,
    "m_ZTestMode": 4,
    "m_ZWriteControl": 0,
    "m_AlphaMode": 0,
    "m_RenderFace": 2,
    "m_AlphaClip": true,
    "m_CastShadows": true,
    "m_ReceiveShadows": true,
    "m_SupportsLODCrossFade": false,
    "m_CustomEditorGUI": "",
    "m_SupportVFX": false
}

{
    "m_SGVersion": 0,
    "m_Type": "UnityEditor.ShaderGraph.Vector4MaterialSlot",
    "m_ObjectId": "969a44866c5f409a9353a00b20f3c959",
    "m_Id": 0,
    "m_DisplayName": "RGBA",
    "m_SlotType": 1,
    "m_Hidden": false,
    "m_ShaderOutputName": "RGBA",
    "m_StageCapability": 2,
    "m_Value": {
        "x": 0.0,
        "y": 0.0,
        "z": 0.0,
        "w": 0.0
    },
    "m_DefaultValue": {
        "x": 0.0,
        "y": 0.0,
        "z": 0.0,
        "w": 0.0
    },
    "m_Labels": []
}

{
    "m_SGVersion": 0,
    "m_Type": "UnityEditor.ShaderGraph.Vector1MaterialSlot",
    "m_ObjectId": "9cbd214b8f80441ebced23bb8b124f68",
    "m_Id": 4,
    "m_DisplayName": "R",
    "m_SlotType": 1,
    "m_Hidden": false,
    "m_ShaderOutputName": "R",
    "m_StageCapability": 2,
    "m_Value": 0.0,
    "m_DefaultValue": 0.0,
    "m_Labels": []
}

{
    "m_SGVersion": 0,
    "m_Type": "UnityEditor.ShaderGraph.BlockNode",
    "m_ObjectId": "9d64debf1e44493cbd61a7586101bcb2",
    "m_Group": {
        "m_Id": ""
    },
    "m_Name": "SurfaceDescription.Alpha",
    "m_DrawState": {
        "m_Expanded": true,
        "m_Position": {
            "serializedVersion": "2",
            "x": 0.0,
            "y": 0.0,
            "width": 0.0,
            "height": 0.0
        }
    },
    "m_Slots": [
        {
            "m_Id": "cb42c0a1122a4954a906095e37f87183"
        }
    ],
    "synonyms": [],
    "m_Precision": 0,
    "m_PreviewExpanded": true,
    "m_DismissedVersion": 0,
    "m_PreviewMode": 0,
    "m_CustomColors": {
        "m_SerializableColors": []
    },
    "m_SerializedDescriptor": "SurfaceDescription.Alpha"
}

{
    "m_SGVersion": 0,
    "m_Type": "UnityEditor.ShaderGraph.BlockNode",
    "m_ObjectId": "a01de34e0508463b80a4fec6687627d6",
    "m_Group": {
        "m_Id": ""
    },
    "m_Name": "SurfaceDescription.Metallic",
    "m_DrawState": {
        "m_Expanded": true,
        "m_Position": {
            "serializedVersion": "2",
            "x": 0.0,
            "y": 0.0,
            "width": 0.0,
            "height": 0.0
        }
    },
    "m_Slots": [
        {
            "m_Id": "5fd728ab21974e858c14f06af1c67d75"
        }
    ],
    "synonyms": [],
    "m_Precision": 0,
    "m_PreviewExpanded": true,
    "m_DismissedVersion": 0,
    "m_PreviewMode": 0,
    "m_CustomColors": {
        "m_SerializableColors": []
    },
    "m_SerializedDescriptor": "SurfaceDescription.Metallic"
}

{
    "m_SGVersion": 0,
    "m_Type": "UnityEditor.ShaderGraph.Internal.Texture2DShaderProperty",
    "m_ObjectId": "a2289b856eac4e21a75ba1b1f75b7811",
    "m_Guid": {
        "m_GuidSerialized": "52fc649d-ded0-4b16-b324-b38bb9896915"
    },
    "m_Name": "BaseColorMap",
    "m_DefaultRefNameVersion": 1,
    "m_RefNameGeneratedByDisplayName": "BaseColorMap",
    "m_DefaultReferenceName": "_BaseColorMap",
    "m_OverrideReferenceName": "",
    "m_GeneratePropertyBlock": true,
    "m_UseCustomSlotLabel": false,
    "m_CustomSlotLabel": "",
    "m_DismissedVersion": 0,
    "m_Precision": 0,
    "overrideHLSLDeclaration": false,
    "hlslDeclarationOverride": 0,
    "m_Hidden": false,
    "m_Value": {
        "m_SerializedTexture": "{\"texture\":{\"instanceID\":0}}",
        "m_Guid": ""
    },
    "isMainTexture": false,
    "useTilingAndOffset": false,
    "m_Modifiable": true,
    "m_DefaultType": 0
}

{
    "m_SGVersion": 0,
    "m_Type": "UnityEditor.ShaderGraph.BlockNode",
    "m_ObjectId": "a24b6e264b614945931aae815bd16d2f",
    "m_Group": {
        "m_Id": ""
    },
    "m_Name": "SurfaceDescription.Occlusion",
    "m_DrawState": {
        "m_Expanded": true,
        "m_Position": {
            "serializedVersion": "2",
            "x": 0.0,
            "y": 0.0,
            "width": 0.0,
            "height": 0.0
        }
    },
    "m_Slots": [
        {
            "m_Id": "fdb3899ad1af4ff69b2391b3b1c8a4f6"
        }
    ],
    "synonyms": [],
    "m_Precision": 0,
    "m_PreviewExpanded": true,
    "m_DismissedVersion": 0,
    "m_PreviewMode": 0,
    "m_CustomColors": {
        "m_SerializableColors": []
    },
    "m_SerializedDescriptor": "SurfaceDescription.Occlusion"
}

{
    "m_SGVersion": 0,
    "m_Type": "UnityEditor.ShaderGraph.Vector1MaterialSlot",
    "m_ObjectId": "a3abca1c56ee4fa1b0d064b6752026d0",
    "m_Id": -90481742,
    "m_DisplayName": "Opacity",
    "m_SlotType": 0,
    "m_Hidden": false,
    "m_ShaderOutputName": "_Opacity",
    "m_StageCapability": 3,
    "m_Value": 0.0,
    "m_DefaultValue": 0.0,
    "m_Labels": []
}

{
    "m_SGVersion": 0,
    "m_Type": "UnityEditor.ShaderGraph.GroupData",
    "m_ObjectId": "a4be596e7ef14eff9ee510f625d8bb85",
    "m_Title": "Dithering",
    "m_Position": {
        "x": -903.0000610351563,
        "y": 672.0
    }
}

{
    "m_SGVersion": 0,
    "m_Type": "UnityEditor.ShaderGraph.Vector1MaterialSlot",
    "m_ObjectId": "a7f9bc76c6b44b258839550495e4d7d3",
    "m_Id": 2,
    "m_DisplayName": "AlphaClipThreshold",
    "m_SlotType": 1,
    "m_Hidden": false,
    "m_ShaderOutputName": "AlphaClipThreshold",
    "m_StageCapability": 3,
    "m_Value": 0.0,
    "m_DefaultValue": 0.0,
    "m_Labels": []
}

{
    "m_SGVersion": 0,
    "m_Type": "UnityEditor.ShaderGraph.Texture2DInputMaterialSlot",
    "m_ObjectId": "a9e35da7a6174fcabf2cc2492ded2ff1",
    "m_Id": 1,
    "m_DisplayName": "Texture",
    "m_SlotType": 0,
    "m_Hidden": false,
    "m_ShaderOutputName": "Texture",
    "m_StageCapability": 3,
    "m_BareResource": false,
    "m_Texture": {
        "m_SerializedTexture": "{\"texture\":{\"instanceID\":0}}",
        "m_Guid": ""
    },
    "m_DefaultType": 0
}

{
    "m_SGVersion": 0,
    "m_Type": "UnityEditor.ShaderGraph.BlockNode",
    "m_ObjectId": "ac621ed6208f479f96c24878a8e70311",
    "m_Group": {
        "m_Id": ""
    },
    "m_Name": "SurfaceDescription.AlphaClipThreshold",
    "m_DrawState": {
        "m_Expanded": true,
        "m_Position": {
            "serializedVersion": "2",
            "x": 0.0,
            "y": 0.0,
            "width": 0.0,
            "height": 0.0
        }
    },
    "m_Slots": [
        {
            "m_Id": "16a0c326e81a4e559de41223e1f56d8d"
        }
    ],
    "synonyms": [],
    "m_Precision": 0,
    "m_PreviewExpanded": true,
    "m_DismissedVersion": 0,
    "m_PreviewMode": 0,
    "m_CustomColors": {
        "m_SerializableColors": []
    },
    "m_SerializedDescriptor": "SurfaceDescription.AlphaClipThreshold"
}

{
    "m_SGVersion": 0,
    "m_Type": "UnityEditor.ShaderGraph.TangentMaterialSlot",
    "m_ObjectId": "aed370c5b24e4b7eb9ece754d3439693",
    "m_Id": 0,
    "m_DisplayName": "Tangent",
    "m_SlotType": 0,
    "m_Hidden": false,
    "m_ShaderOutputName": "Tangent",
    "m_StageCapability": 1,
    "m_Value": {
        "x": 0.0,
        "y": 0.0,
        "z": 0.0
    },
    "m_DefaultValue": {
        "x": 0.0,
        "y": 0.0,
        "z": 0.0
    },
    "m_Labels": [],
    "m_Space": 0
}

{
    "m_SGVersion": 0,
    "m_Type": "UnityEditor.ShaderGraph.DynamicVectorMaterialSlot",
    "m_ObjectId": "b7b7b668ee694f8cb8fcd0e8c7763161",
    "m_Id": 1,
    "m_DisplayName": "True",
    "m_SlotType": 0,
    "m_Hidden": false,
    "m_ShaderOutputName": "True",
    "m_StageCapability": 3,
    "m_Value": {
        "x": 1.0,
        "y": 1.0,
        "z": 1.0,
        "w": 1.0
    },
    "m_DefaultValue": {
        "x": 0.0,
        "y": 0.0,
        "z": 0.0,
        "w": 0.0
    }
}

{
    "m_SGVersion": 0,
    "m_Type": "UnityEditor.ShaderGraph.ColorRGBMaterialSlot",
    "m_ObjectId": "b919bcdaae7f4b8a95078c0574ae2621",
    "m_Id": 0,
    "m_DisplayName": "Base Color",
    "m_SlotType": 0,
    "m_Hidden": false,
    "m_ShaderOutputName": "BaseColor",
    "m_StageCapability": 2,
    "m_Value": {
        "x": 0.5,
        "y": 0.5,
        "z": 0.5
    },
    "m_DefaultValue": {
        "x": 0.0,
        "y": 0.0,
        "z": 0.0
    },
    "m_Labels": [],
    "m_ColorMode": 0,
    "m_DefaultColor": {
        "r": 0.5,
        "g": 0.5,
        "b": 0.5,
        "a": 1.0
    }
}

{
    "m_SGVersion": 0,
    "m_Type": "UnityEditor.ShaderGraph.Vector1MaterialSlot",
    "m_ObjectId": "b93a7486a98c4d98a34e556be5e45c52",
    "m_Id": 0,
    "m_DisplayName": "Smoothness",
    "m_SlotType": 0,
    "m_Hidden": false,
    "m_ShaderOutputName": "Smoothness",
    "m_StageCapability": 2,
    "m_Value": 0.5,
    "m_DefaultValue": 0.5,
    "m_Labels": []
}

{
    "m_SGVersion": 0,
    "m_Type": "UnityEditor.ShaderGraph.PropertyNode",
    "m_ObjectId": "bb7de44f33424537884096e19666336f",
    "m_Group": {
        "m_Id": "bd0aa995b87f4af091b03f39a8eb04ec"
    },
    "m_Name": "Property",
    "m_DrawState": {
        "m_Expanded": true,
        "m_Position": {
            "serializedVersion": "2",
            "x": -761.0,
            "y": 203.0,
            "width": 130.99993896484376,
            "height": 33.99995422363281
        }
    },
    "m_Slots": [
        {
            "m_Id": "84f02ddc262247cf9041df57fdf2dd45"
        }
    ],
    "synonyms": [],
    "m_Precision": 0,
    "m_PreviewExpanded": true,
    "m_DismissedVersion": 0,
    "m_PreviewMode": 0,
    "m_CustomColors": {
        "m_SerializableColors": []
    },
    "m_Property": {
        "m_Id": "85298ee88f404316897b990953c6c1aa"
    }
}

{
    "m_SGVersion": 0,
    "m_Type": "UnityEditor.ShaderGraph.Vector1MaterialSlot",
    "m_ObjectId": "bc88627ad18d4fcb93922359229a337a",
    "m_Id": 7,
    "m_DisplayName": "A",
    "m_SlotType": 1,
    "m_Hidden": false,
    "m_ShaderOutputName": "A",
    "m_StageCapability": 2,
    "m_Value": 0.0,
    "m_DefaultValue": 0.0,
    "m_Labels": []
}

{
    "m_SGVersion": 0,
    "m_Type": "UnityEditor.ShaderGraph.GroupData",
    "m_ObjectId": "bd0aa995b87f4af091b03f39a8eb04ec",
    "m_Title": "BaseColor",
    "m_Position": {
        "x": -1041.0,
        "y": -146.99996948242188
    }
}

{
    "m_SGVersion": 0,
    "m_Type": "UnityEditor.ShaderGraph.BlockNode",
    "m_ObjectId": "c26f8cc9502e4152ae70d9c6481a5bfc",
    "m_Group": {
        "m_Id": ""
    },
    "m_Name": "VertexDescription.Position",
    "m_DrawState": {
        "m_Expanded": true,
        "m_Position": {
            "serializedVersion": "2",
            "x": 0.0,
            "y": 0.0,
            "width": 0.0,
            "height": 0.0
        }
    },
    "m_Slots": [
        {
            "m_Id": "0ee175294858433bb1cd440f4527e68a"
        }
    ],
    "synonyms": [],
    "m_Precision": 0,
    "m_PreviewExpanded": true,
    "m_DismissedVersion": 0,
    "m_PreviewMode": 0,
    "m_CustomColors": {
        "m_SerializableColors": []
    },
    "m_SerializedDescriptor": "VertexDescription.Position"
}

{
    "m_SGVersion": 0,
    "m_Type": "UnityEditor.ShaderGraph.GroupData",
    "m_ObjectId": "c46d5cad6c604a369892973d3d9917d9",
    "m_Title": "Tiling And Offset",
    "m_Position": {
        "x": -1508.9998779296875,
        "y": -146.0
    }
}

{
    "m_SGVersion": 0,
    "m_Type": "UnityEditor.ShaderGraph.PropertyNode",
    "m_ObjectId": "c51ef61f8e7440fbba0817c4f42f1480",
    "m_Group": {
        "m_Id": "c46d5cad6c604a369892973d3d9917d9"
    },
    "m_Name": "Property",
    "m_DrawState": {
        "m_Expanded": true,
        "m_Position": {
            "serializedVersion": "2",
            "x": -1478.9998779296875,
            "y": -4.999993324279785,
            "width": 105.0,
            "height": 33.999961853027347
        }
    },
    "m_Slots": [
        {
            "m_Id": "29cd4f6f97ab4aed8e8687faad2aa4dc"
        }
    ],
    "synonyms": [],
    "m_Precision": 0,
    "m_PreviewExpanded": true,
    "m_DismissedVersion": 0,
    "m_PreviewMode": 0,
    "m_CustomColors": {
        "m_SerializableColors": []
    },
    "m_Property": {
        "m_Id": "67e14232824c417987b8b2bd06da5460"
    }
}

{
    "m_SGVersion": 0,
    "m_Type": "UnityEditor.ShaderGraph.Vector1MaterialSlot",
    "m_ObjectId": "c587639dac284523b17f4c580266b5e6",
    "m_Id": 0,
    "m_DisplayName": "Metallic",
    "m_SlotType": 1,
    "m_Hidden": false,
    "m_ShaderOutputName": "Out",
    "m_StageCapability": 3,
    "m_Value": 0.0,
    "m_DefaultValue": 0.0,
    "m_Labels": []
}

{
    "m_SGVersion": 0,
    "m_Type": "UnityEditor.ShaderGraph.Vector1MaterialSlot",
    "m_ObjectId": "c6e9c94842a64985a5034e9826356ae5",
    "m_Id": 5,
    "m_DisplayName": "G",
    "m_SlotType": 1,
    "m_Hidden": false,
    "m_ShaderOutputName": "G",
    "m_StageCapability": 2,
    "m_Value": 0.0,
    "m_DefaultValue": 0.0,
    "m_Labels": []
}

{
    "m_SGVersion": 0,
    "m_Type": "UnityEditor.ShaderGraph.Vector1MaterialSlot",
    "m_ObjectId": "c7b518a01c8d40ad9ec57b8e5d061f11",
    "m_Id": 6,
    "m_DisplayName": "B",
    "m_SlotType": 1,
    "m_Hidden": false,
    "m_ShaderOutputName": "B",
    "m_StageCapability": 2,
    "m_Value": 0.0,
    "m_DefaultValue": 0.0,
    "m_Labels": []
}

{
    "m_SGVersion": 0,
    "m_Type": "UnityEditor.ShaderGraph.BlockNode",
    "m_ObjectId": "c8b7ae5ad0484126b265fc90df6efee1",
    "m_Group": {
        "m_Id": ""
    },
    "m_Name": "VertexDescription.Tangent",
    "m_DrawState": {
        "m_Expanded": true,
        "m_Position": {
            "serializedVersion": "2",
            "x": 0.0,
            "y": 0.0,
            "width": 0.0,
            "height": 0.0
        }
    },
    "m_Slots": [
        {
            "m_Id": "aed370c5b24e4b7eb9ece754d3439693"
        }
    ],
    "synonyms": [],
    "m_Precision": 0,
    "m_PreviewExpanded": true,
    "m_DismissedVersion": 0,
    "m_PreviewMode": 0,
    "m_CustomColors": {
        "m_SerializableColors": []
    },
    "m_SerializedDescriptor": "VertexDescription.Tangent"
}

{
    "m_SGVersion": 0,
    "m_Type": "UnityEditor.ShaderGraph.Vector1MaterialSlot",
    "m_ObjectId": "cb42c0a1122a4954a906095e37f87183",
    "m_Id": 0,
    "m_DisplayName": "Alpha",
    "m_SlotType": 0,
    "m_Hidden": false,
    "m_ShaderOutputName": "Alpha",
    "m_StageCapability": 2,
    "m_Value": 1.0,
    "m_DefaultValue": 1.0,
    "m_Labels": []
}

{
    "m_SGVersion": 3,
    "m_Type": "UnityEditor.ShaderGraph.Internal.ColorShaderProperty",
    "m_ObjectId": "ccc092faaf6645eea20c0dbac19cad97",
    "m_Guid": {
        "m_GuidSerialized": "9cf7bfa9-5c75-494d-b848-1aaa7049395f"
    },
    "m_Name": "EmissionColor",
    "m_DefaultRefNameVersion": 1,
    "m_RefNameGeneratedByDisplayName": "EmissionColor",
    "m_DefaultReferenceName": "_EmissionColor",
    "m_OverrideReferenceName": "",
    "m_GeneratePropertyBlock": true,
    "m_UseCustomSlotLabel": false,
    "m_CustomSlotLabel": "",
    "m_DismissedVersion": 0,
    "m_Precision": 0,
    "overrideHLSLDeclaration": false,
    "hlslDeclarationOverride": 0,
    "m_Hidden": false,
    "m_Value": {
        "r": 0.0,
        "g": 0.0,
        "b": 0.0,
        "a": 0.0
    },
    "isMainColor": false,
    "m_ColorMode": 1
}

{
    "m_SGVersion": 0,
    "m_Type": "UnityEditor.ShaderGraph.BooleanMaterialSlot",
    "m_ObjectId": "cfc9c08ce235422681334439f88f34c6",
    "m_Id": 0,
    "m_DisplayName": "Predicate",
    "m_SlotType": 0,
    "m_Hidden": false,
    "m_ShaderOutputName": "Predicate",
    "m_StageCapability": 3,
    "m_Value": false,
    "m_DefaultValue": false
}

{
    "m_SGVersion": 0,
    "m_Type": "UnityEditor.ShaderGraph.DynamicVectorMaterialSlot",
    "m_ObjectId": "d040b33d676e496a81e1c69e38b05d40",
    "m_Id": 3,
    "m_DisplayName": "Out",
    "m_SlotType": 1,
    "m_Hidden": false,
    "m_ShaderOutputName": "Out",
    "m_StageCapability": 3,
    "m_Value": {
        "x": 0.0,
        "y": 0.0,
        "z": 0.0,
        "w": 0.0
    },
    "m_DefaultValue": {
        "x": 0.0,
        "y": 0.0,
        "z": 0.0,
        "w": 0.0
    }
}

{
    "m_SGVersion": 0,
    "m_Type": "UnityEditor.ShaderGraph.Vector2MaterialSlot",
    "m_ObjectId": "d068765ab2a04e28b53b073407a8de6b",
    "m_Id": 3,
    "m_DisplayName": "Out",
    "m_SlotType": 1,
    "m_Hidden": false,
    "m_ShaderOutputName": "Out",
    "m_StageCapability": 3,
    "m_Value": {
        "x": 0.0,
        "y": 0.0
    },
    "m_DefaultValue": {
        "x": 0.0,
        "y": 0.0
    },
    "m_Labels": []
}

{
    "m_SGVersion": 0,
    "m_Type": "UnityEditor.ShaderGraph.BooleanMaterialSlot",
    "m_ObjectId": "d1ba3f132f974b70bbee7910feb98278",
    "m_Id": 860545384,
    "m_DisplayName": "HideShadow",
    "m_SlotType": 0,
    "m_Hidden": false,
    "m_ShaderOutputName": "_HideShadow",
    "m_StageCapability": 3,
    "m_Value": true,
    "m_DefaultValue": false
}

{
    "m_SGVersion": 0,
    "m_Type": "UnityEditor.ShaderGraph.NormalMaterialSlot",
    "m_ObjectId": "d5b9a71ca9a244218c3d9800d9bfd5f6",
    "m_Id": 0,
    "m_DisplayName": "Normal",
    "m_SlotType": 0,
    "m_Hidden": false,
    "m_ShaderOutputName": "Normal",
    "m_StageCapability": 1,
    "m_Value": {
        "x": 0.0,
        "y": 0.0,
        "z": 0.0
    },
    "m_DefaultValue": {
        "x": 0.0,
        "y": 0.0,
        "z": 0.0
    },
    "m_Labels": [],
    "m_Space": 0
}

{
    "m_SGVersion": 0,
    "m_Type": "UnityEditor.ShaderGraph.Vector1MaterialSlot",
    "m_ObjectId": "dc81887baeb74cb3b5c12aa6e8daac3b",
    "m_Id": 0,
    "m_DisplayName": "Opacity",
    "m_SlotType": 1,
    "m_Hidden": false,
    "m_ShaderOutputName": "Out",
    "m_StageCapability": 3,
    "m_Value": 0.0,
    "m_DefaultValue": 0.0,
    "m_Labels": []
}

{
    "m_SGVersion": 1,
    "m_Type": "UnityEditor.ShaderGraph.Internal.Vector2ShaderProperty",
    "m_ObjectId": "ddb23a26adc14bf3bb0e56168e12d4e0",
    "m_Guid": {
        "m_GuidSerialized": "0573d008-6885-4564-b9a5-754ddd2ba65f"
    },
    "m_Name": "Offset",
    "m_DefaultRefNameVersion": 1,
    "m_RefNameGeneratedByDisplayName": "Offset",
    "m_DefaultReferenceName": "_Offset",
    "m_OverrideReferenceName": "",
    "m_GeneratePropertyBlock": true,
    "m_UseCustomSlotLabel": false,
    "m_CustomSlotLabel": "",
    "m_DismissedVersion": 0,
    "m_Precision": 0,
    "overrideHLSLDeclaration": false,
    "hlslDeclarationOverride": 0,
    "m_Hidden": false,
    "m_Value": {
        "x": 0.0,
        "y": 0.0,
        "z": 0.0,
        "w": 0.0
    }
}

{
    "m_SGVersion": 0,
    "m_Type": "UnityEditor.ShaderGraph.DynamicValueMaterialSlot",
    "m_ObjectId": "f178c8c4033d4e0ea0379204fed548bb",
    "m_Id": 2,
    "m_DisplayName": "Out",
    "m_SlotType": 1,
    "m_Hidden": false,
    "m_ShaderOutputName": "Out",
    "m_StageCapability": 3,
    "m_Value": {
        "e00": 0.0,
        "e01": 0.0,
        "e02": 0.0,
        "e03": 0.0,
        "e10": 0.0,
        "e11": 0.0,
        "e12": 0.0,
        "e13": 0.0,
        "e20": 0.0,
        "e21": 0.0,
        "e22": 0.0,
        "e23": 0.0,
        "e30": 0.0,
        "e31": 0.0,
        "e32": 0.0,
        "e33": 0.0
    },
    "m_DefaultValue": {
        "e00": 1.0,
        "e01": 0.0,
        "e02": 0.0,
        "e03": 0.0,
        "e10": 0.0,
        "e11": 1.0,
        "e12": 0.0,
        "e13": 0.0,
        "e20": 0.0,
        "e21": 0.0,
        "e22": 1.0,
        "e23": 0.0,
        "e30": 0.0,
        "e31": 0.0,
        "e32": 0.0,
        "e33": 1.0
    }
}

{
    "m_SGVersion": 0,
    "m_Type": "UnityEditor.ShaderGraph.UVMaterialSlot",
    "m_ObjectId": "f38d9ee6095248fa8e78078a709b3601",
    "m_Id": 0,
    "m_DisplayName": "UV",
    "m_SlotType": 0,
    "m_Hidden": false,
    "m_ShaderOutputName": "UV",
    "m_StageCapability": 3,
    "m_Value": {
        "x": 0.0,
        "y": 0.0
    },
    "m_DefaultValue": {
        "x": 0.0,
        "y": 0.0
    },
    "m_Labels": [],
    "m_Channel": 0
}

{
    "m_SGVersion": 1,
    "m_Type": "UnityEditor.ShaderGraph.Internal.Vector1ShaderProperty",
    "m_ObjectId": "f902dfc1c89247ebaa2d3d1fa1f66b81",
    "m_Guid": {
        "m_GuidSerialized": "0376d039-a56f-4621-a51a-36477e57e208"
    },
    "m_Name": "Opacity",
    "m_DefaultRefNameVersion": 1,
    "m_RefNameGeneratedByDisplayName": "Opacity",
    "m_DefaultReferenceName": "_Opacity",
    "m_OverrideReferenceName": "",
    "m_GeneratePropertyBlock": true,
    "m_UseCustomSlotLabel": false,
    "m_CustomSlotLabel": "",
    "m_DismissedVersion": 0,
    "m_Precision": 0,
    "overrideHLSLDeclaration": false,
    "hlslDeclarationOverride": 0,
    "m_Hidden": false,
    "m_Value": 1.0,
    "m_FloatType": 1,
    "m_RangeValues": {
        "x": 0.0,
        "y": 1.0
    }
}

{
    "m_SGVersion": 0,
    "m_Type": "UnityEditor.ShaderGraph.ColorRGBMaterialSlot",
    "m_ObjectId": "f94befbbdbbd4bd081530441d4eb29ab",
    "m_Id": 0,
    "m_DisplayName": "Emission",
    "m_SlotType": 0,
    "m_Hidden": false,
    "m_ShaderOutputName": "Emission",
    "m_StageCapability": 2,
    "m_Value": {
        "x": 0.0,
        "y": 0.0,
        "z": 0.0
    },
    "m_DefaultValue": {
        "x": 0.0,
        "y": 0.0,
        "z": 0.0
    },
    "m_Labels": [],
    "m_ColorMode": 1,
    "m_DefaultColor": {
        "r": 0.0,
        "g": 0.0,
        "b": 0.0,
        "a": 1.0
    }
}

{
    "m_SGVersion": 0,
    "m_Type": "UnityEditor.ShaderGraph.Vector4MaterialSlot",
    "m_ObjectId": "fa4edac4c4db4abfb5b23c217e34aadd",
    "m_Id": 0,
    "m_DisplayName": "EmissionColor",
    "m_SlotType": 1,
    "m_Hidden": false,
    "m_ShaderOutputName": "Out",
    "m_StageCapability": 3,
    "m_Value": {
        "x": 0.0,
        "y": 0.0,
        "z": 0.0,
        "w": 0.0
    },
    "m_DefaultValue": {
        "x": 0.0,
        "y": 0.0,
        "z": 0.0,
        "w": 0.0
    },
    "m_Labels": []
}

{
    "m_SGVersion": 0,
    "m_Type": "UnityEditor.ShaderGraph.Vector1MaterialSlot",
    "m_ObjectId": "fdb3899ad1af4ff69b2391b3b1c8a4f6",
    "m_Id": 0,
    "m_DisplayName": "Ambient Occlusion",
    "m_SlotType": 0,
    "m_Hidden": false,
    "m_ShaderOutputName": "Occlusion",
    "m_StageCapability": 2,
    "m_Value": 1.0,
    "m_DefaultValue": 1.0,
    "m_Labels": []
}

{
    "m_SGVersion": 0,
    "m_Type": "UnityEditor.ShaderGraph.GroupData",
    "m_ObjectId": "fe6d64abe8c7442db65be1c2419f0d85",
    "m_Title": "Emission",
    "m_Position": {
        "x": -1005.0,
        "y": 288.0
    }
}

{
    "m_SGVersion": 0,
    "m_Type": "UnityEditor.ShaderGraph.Vector1MaterialSlot",
    "m_ObjectId": "ff35fc91d46a48ea854608658b31dbac",
    "m_Id": 1,
    "m_DisplayName": "B",
    "m_SlotType": 0,
    "m_Hidden": false,
    "m_ShaderOutputName": "B",
    "m_StageCapability": 3,
    "m_Value": 0.6000000238418579,
    "m_DefaultValue": 0.0,
    "m_Labels": []
}

